{
  "count": 346,
  "next": "http://exercise.hellogym.io/api/v2/exercise/?page=2",
  "previous": null,
  "results": [
    {
      "id": 345,
      "license_author": "deusinvictus",
      "status": "2",
      "description": "<p>Two Handed Russian Style Kettlebell swing</p>",
      "name": "2 Handed Kettlebell swing",
      "name_original": "",
      "creation_date": "2015-08-03",
      "uuid": "c788d643-150a-4ac7-97ef-84643c6419bf",
      "license": 2,
      "category": 10,
      "language": 2,
      "muscles": [],
      "muscles_secondary": [],
      "equipment": [
        10
      ]
    },
    {
      "id": 350,
      "license_author": "Magenta",
      "status": "1",
      "description": "<p></p>\n<p>60 secondi per ogni stazione, ripetere tutto 2 volte</p>\n<p>1. gambe alte ferme, cercando di portare i glutei più vicino possibile al muro</p>\n<p>2. portare la gamba destra \"ad ore 3\", quanto più largo possibile; la gamba sinistra è ferma in alto</p>\n<p>3. portare la gamba sinistra \"ad ore 9\", quanto più largo possibile; la gamba destra è ferma in alto</p>\n<p>4. partendo da posizione base, allargare entrabe le gambe il più possibile (per raggiungere le \"10 e 10\")</p>\n<p>5. gambe piegate a rana e piedi appoggiati al muro (il lato destro del piede destro, per capirci, tocca il muro, viceversa per il sinistro): spingere con le mani in zona ginocchia verso il muro per avvicinarle</p>",
      "name": "Aalex Gambe alte al muro",
      "name_original": "",
      "creation_date": "2015-10-12",
      "uuid": "c6601887-047b-4964-a629-f0b912c838ca",
      "license": 2,
      "category": 9,
      "language": 2,
      "muscles": [],
      "muscles_secondary": [],
      "equipment": []
    },
    {
      "id": 174,
      "license_author": "flori",
      "status": "2",
      "description": "<ul>\n<li>in eine aufrechte Position setzen, bei der die Beine hüftbreit geöffnet sind</li>\n<li>den Rücken, die Knie und die Oberschenkelaußenseite an die jeweiligen Polster pressen</li>\n<li>mit den Händen an den Griffen festhalten</li>\n<li>die Oberschenkel bis zum Anschlagpunkt der Hebelarme auseinander drücken</li>\n<li>danach die Beine wieder zusammen führen</li>\n<li>das Gesäß nicht vom Sitz abheben</li>\n<li>beim Auseinanderdrücken der Hebelarme aus- und beim Zusammenführen einatmen</li>\n</ul>",
      "name": "Abduktoren-Maschine",
      "name_original": "",
      "creation_date": "2013-07-19",
      "uuid": "99881bdd-43d7-4c3b-82ed-9c187d0455b7",
      "license": 1,
      "category": 9,
      "language": 1,
      "muscles": [
        8,
        6
      ],
      "muscles_secondary": [
        11
      ],
      "equipment": []
    },
    {
      "id": 223,
      "license_author": "Marius",
      "status": "2",
      "description": "<p>Oberschenkel Innenseite!</p>",
      "name": "Adduktoren Maschine",
      "name_original": "",
      "creation_date": "2014-02-26",
      "uuid": "e56d0a17-b1b8-427d-991e-97c530c7db6a",
      "license": 1,
      "category": 9,
      "language": 1,
      "muscles": [],
      "muscles_secondary": [],
      "equipment": []
    },
    {
      "id": 228,
      "license_author": "bloody_disgrace",
      "status": "2",
      "description": "<p>Zwei Kurzhanteln mit den Handflächen nach innen vor der Brust halten, Ellbogen unterhalb der Handgelenke.</p>\n<p>Ellbogen nach außen bringen und Hanteln über den Kopf heben. Drehung kommt aus dem Ellbogen, nicht aus den Armen!</p>\n<p>Wenn die Arme durchgestreckt sind, die gleiche Bewegung rückwärts ausführen.</p>",
      "name": "Arnold Press",
      "name_original": "",
      "creation_date": "2014-03-09",
      "uuid": "880bff63-6798-4ffc-a818-b2a1ccfec0f7",
      "license": 3,
      "category": 13,
      "language": 1,
      "muscles": [
        2
      ],
      "muscles_secondary": [
        3,
        9,
        5
      ],
      "equipment": [
        3
      ]
    },
    {
      "id": 227,
      "license_author": "trzr23",
      "status": "2",
      "description": "<p>Very common shoulder exercise.</p>\n<p> </p>\n<p>As shown here: https://www.youtube.com/watch?v=vj2w851ZHRM</p>",
      "name": "Arnold Shoulder Press",
      "name_original": "",
      "creation_date": "2014-03-09",
      "uuid": "53ca25b3-61d9-4f72-bfdb-492b83484ff5",
      "license": 1,
      "category": 13,
      "language": 2,
      "muscles": [],
      "muscles_secondary": [],
      "equipment": [
        3
      ]
    },
    {
      "id": 352,
      "license_author": "Tetsuhiko Asai",
      "status": "3",
      "description": "<ol>\n<li>single leg sit and stand</li>\n</ol>",
      "name": "Asai Squad",
      "name_original": "",
      "creation_date": "2015-10-22",
      "uuid": "bad296f4-35a5-4125-ae3f-0187f45945e2",
      "license": 2,
      "category": 9,
      "language": 7,
      "muscles": [
        10
      ],
      "muscles_secondary": [
        8
      ],
      "equipment": []
    },
    {
      "id": 353,
      "license_author": "Tetsuhiko Asai",
      "status": "2",
      "description": "<ol>\n<li>single leg sit and stand</li>\n</ol>",
      "name": "Asai Squad",
      "name_original": "",
      "creation_date": "2015-10-22",
      "uuid": "583281c7-2362-48e7-95d5-8fd6c455e0fb",
      "license": 2,
      "category": 9,
      "language": 7,
      "muscles": [
        10
      ],
      "muscles_secondary": [
        8
      ],
      "equipment": []
    },
    {
      "id": 135,
      "license_author": "wger.de",
      "status": "2",
      "description": "",
      "name": "Ausfallschritt Trizepsdrücken ü. Kopf, ß-Stange",
      "name_original": "",
      "creation_date": null,
      "uuid": "c8d08cbd-d406-4ce0-b1b9-10b236272d30",
      "license": 1,
      "category": 8,
      "language": 1,
      "muscles": [
        5
      ],
      "muscles_secondary": [],
      "equipment": []
    },
    {
      "id": 5,
      "license_author": "wger.de",
      "status": "2",
      "description": "<p>.</p>",
      "name": "Ausfallschritte im Gehen",
      "name_original": "",
      "creation_date": null,
      "uuid": "5675ae61-6597-4806-ae5c-2dda5a5ac03c",
      "license": 1,
      "category": 9,
      "language": 1,
      "muscles": [
        8,
        10
      ],
      "muscles_secondary": [],
      "equipment": [
        3
      ]
    },
    {
      "id": 55,
      "license_author": "wger.de",
      "status": "2",
      "description": "<p>.</p>",
      "name": "Ausfallschritte stehend",
      "name_original": "",
      "creation_date": null,
      "uuid": "27301836-ed7f-4510-83e7-66c0b8041a44",
      "license": 1,
      "category": 9,
      "language": 1,
      "muscles": [
        8,
        10
      ],
      "muscles_secondary": [],
      "equipment": [
        3
      ]
    },
    {
      "id": 77,
      "license_author": "wger.de",
      "status": "2",
      "description": "<p>Der Bewegungsablauf ist ähnlich zur Übung mit einer Langhantel.</p>\n<p>Nehme die Gewichte in die Hände und lege dich auf die Bank. Halte die Hanteln neben der Brust auf Brustwarzenhöhe und drücke sie nun nach oben, bis die Arme ausgestreckt sind. Lasse die Gewichte nun langsam und kontrolliert runter.</p>\n<p> </p>",
      "name": "Bankdrücken KH",
      "name_original": "",
      "creation_date": null,
      "uuid": "06450bcb-03a8-4bd7-8349-ef677ee57ea3",
      "license": 1,
      "category": 11,
      "language": 1,
      "muscles": [
        4
      ],
      "muscles_secondary": [
        2,
        5
      ],
      "equipment": [
        8,
        3
      ]
    },
    {
      "id": 15,
      "license_author": "wger.de",
      "status": "2",
      "description": "<p>Lege dich auf die Bank, die Stange direkt über die Augen, die Knie etwas angewinkelt und die Füße fest auf dem Boden. Greife die Stange breit und lasse sie langsam und kontrolliert runter, dabei sollte die Stange kurz auf Brustwarzenhöhe den Körper berühren. Dann das Gewicht wieder hochdrücken bis die Arme durchgestreckt sind.</p>\n<p>Bei hohem Gewicht, empfielt sich natürlich einen <em>Spotter</em> zu haben, der einen hilft falls man die Stange nicht alleine hochdrücken kann.</p>\n<p>Mit der Breite des Griffs kann außerdem kontrolliert werden, welcher Bereich der Brust stärker belastet wird:</p>\n<ul>\n<li>breiter Griff: äußere Brustmuskeln</li>\n<li>enger Griff: innere Brustmuskeln und Trizeps</li>\n</ul>",
      "name": "Bankdrücken LH",
      "name_original": "",
      "creation_date": null,
      "uuid": "198dcb2e-e35f-4b69-ae8b-e1124d438eae",
      "license": 1,
      "category": 11,
      "language": 1,
      "muscles": [
        4
      ],
      "muscles_secondary": [
        2,
        5
      ],
      "equipment": [
        1,
        8
      ]
    },
    {
      "id": 38,
      "license_author": "wger.de",
      "status": "2",
      "description": "<p>Lege dich auf die Bank, die Stange direkt über die Augen, die Knie etwas angewinkelt und die Füße fest auf dem Boden. Greife nun die Stange mit einem engen Griff (nicht mehr als 20cm.). Führe nun das Gewicht so weit nach unten, bis die Oberarme paralell zum Boden sind, gehe dann wieder nach obern. Bringe die Stange nicht wie beim (breiten) Bankdrücken auf Brusthöhe runter, sondern weiter unten. Auf der tiefsten Stelle sollten deine Arme einen rechten Winkel machen.</p>",
      "name": "Bankdrücken eng",
      "name_original": "",
      "creation_date": null,
      "uuid": "4def60e7-ed8d-4a9d-bf76-ceb15ecf9779",
      "license": 1,
      "category": 8,
      "language": 1,
      "muscles": [
        5
      ],
      "muscles_secondary": [
        2,
        4
      ],
      "equipment": [
        1
      ]
    },
    {
      "id": 343,
      "license_author": "sevae",
      "status": "2",
      "description": "<p>Place a barbell on the floor at your feet.</p>\n<p>Bending at the waist, grip the barbell with a shoulder with overhand grip.</p>\n<p>With a slow controlled motion, roll the bar out so that your back is straight.</p>\n<p>Roll back up raising your hips and butt as you return to the starting position.</p>",
      "name": "Barbell Ab Rollout",
      "name_original": "",
      "creation_date": "2015-07-27",
      "uuid": "1b9dc5bc-790b-4e21-a55d-f8b3115e94c5",
      "license": 2,
      "category": 10,
      "language": 2,
      "muscles": [
        14,
        6
      ],
      "muscles_secondary": [
        2,
        12
      ],
      "equipment": [
        1
      ]
    },
    {
      "id": 344,
      "license_author": "sevae",
      "status": "2",
      "description": "<p>Position barbell overhead with narrow overhand grip.</p>\n<p>Lower forearm behind upper arm with elbows remaining overhead. Extend forearm overhead. Lower and repeat.</p>",
      "name": "Barbell Triceps Extension",
      "name_original": "",
      "creation_date": "2015-07-27",
      "uuid": "2cd5e256-20a7-4bc8-a7a8-d62bf8ce00cf",
      "license": 2,
      "category": 8,
      "language": 2,
      "muscles": [
        5
      ],
      "muscles_secondary": [
        2,
        4
      ],
      "equipment": [
        1
      ]
    },
    {
      "id": 259,
      "license_author": "andikeller",
      "status": "2",
      "description": "<p>Auf Rolle liegend</p>",
      "name": "Bauch stabilisation",
      "name_original": "",
      "creation_date": "2014-07-10",
      "uuid": "c659577f-d9de-4e39-bcd1-1b0bf1f62d11",
      "license": 1,
      "category": 10,
      "language": 1,
      "muscles": [
        6
      ],
      "muscles_secondary": [
        14
      ],
      "equipment": [
        4
      ]
    },
    {
      "id": 307,
      "license_author": "nate303303",
      "status": "2",
      "description": "<p>-Rest your weight on your palms and the balls of your feet, not dissimilar to normal pushup position</p>\n<p>-Move by stepping with your R palm and L foot, then your L palm and R foot.  Basically, walk like a lumbering bear.</p>\n<p>-Move as fast as you can.  Measure your reps/sets in either distance (i.e. 40 yards) or time (i.e. 45 seconds)</p>\n<p>-Works your Pecs, Deltoids, Triceps, Traps, Lats, Abs and Lower Back, Hip Flexors, Quads, Glutes and Calves</p>",
      "name": "Bear Walk",
      "name_original": "",
      "creation_date": "2015-02-06",
      "uuid": "1b8b1657-40fd-4e3b-97b7-1c79b1079f8e",
      "license": 2,
      "category": 11,
      "language": 2,
      "muscles": [
        2,
        7,
        4,
        6,
        3,
        15,
        5
      ],
      "muscles_secondary": [
        8,
        12,
        14,
        10,
        9
      ],
      "equipment": [
        7
      ]
    },
    {
      "id": 230,
      "license_author": "wger.de",
      "status": "2",
      "description": "<p>Lege dich auf die Matte, die Arme sind ausgestreckt und bilden einen rechten Winkel mit dem Körper. Bringe mit etwas Schwung die Beine in eine senkrechte Position. Hebe nun mit einer kontrollierten Bewegung den Becken etwa 5 cm. hoch. und bringe ihn langsam wieder runter. Ohne Pausen wird die Bewegung wiederholt.</p>",
      "name": "Beckenheben",
      "name_original": "",
      "creation_date": "2014-03-09",
      "uuid": "981ef1f0-414a-478b-bc1b-9c6afa45bc77",
      "license": 1,
      "category": 10,
      "language": 1,
      "muscles": [
        6
      ],
      "muscles_secondary": [],
      "equipment": [
        4
      ]
    },
    {
      "id": 22,
      "license_author": "wger.de",
      "status": "2",
      "description": "<p>Lege dich auf dem Bauch auf die Bank und klemme die Beine unter der Halterung (eher im unteren Wadenbereich ansetzen). Halte dich fest und bringe nun das Gewicht nach oben, in dem du die Beinbizeps zusammenziehst, gehe langsam wieder nach unten. Während der Übung muss der Körper fest bleiben.</p>",
      "name": "Beinbeuger liegend",
      "name_original": "",
      "creation_date": null,
      "uuid": "8f0170a2-5274-4487-a295-1a9baf2c92a3",
      "license": 1,
      "category": 9,
      "language": 1,
      "muscles": [
        11
      ],
      "muscles_secondary": [],
      "equipment": []
    }
  ]
}